epoch,train_loss,train_accuracy,train_ROC AUC,validate_loss,validate_accuracy,validate_ROC AUC
0,3.899482873664505,0.02747844827586207,0.524329888430693,3.865418501694997,0.03333333333333333,0.5641093195921985
1,3.8458686066770005,0.03987068965517242,0.5722769075041534,3.745599865913391,0.05572916666666667,0.6424355884308511
2,3.6409760878003876,0.06986350574712644,0.6813241878178207,3.497940496603648,0.08125,0.7539018173758865
3,3.33880881468455,0.11476293103448276,0.789090467433653,3.124621029694875,0.15260416666666668,0.8527669270833333
4,2.9932041483363885,0.17456896551724138,0.8644459009031802,2.790725839138031,0.21927083333333333,0.9084682513297875
5,2.683412306610195,0.22036637931034483,0.9087193695659508,2.490497823556264,0.25416666666666665,0.9362699468085106
6,2.3937249039781503,0.24748563218390804,0.9353457499515101,2.232423718770345,0.265625,0.9510624445921987
7,2.1689778723935973,0.27262931034482757,0.9485261854238874,2.0216657598813375,0.28541666666666665,0.9592452072251774
8,1.9925796341622013,0.2948994252873563,0.9556852554899182,1.8396301964918773,0.3229166666666667,0.9660557956560284
9,1.8387055465544777,0.30962643678160917,0.9622913675567756,1.746709841489792,0.33541666666666664,0.9685286458333332
10,1.7131512589838314,0.3360272988505747,0.966712297395873,1.634825579325358,0.3411458333333333,0.9703138851950354
11,1.6362871027540886,0.3387212643678161,0.9685151592055219,1.5374684453010559,0.38333333333333336,0.9728928413120566
12,1.5611834909724094,0.34967672413793105,0.9707879331954528,1.4993335843086242,0.36875,0.9731629543439717
13,1.5169491034814682,0.37122844827586204,0.9715241124737521,1.4365264316399893,0.39010416666666664,0.9752440713652484
14,1.4654486316373978,0.3757183908045977,0.9732245587931456,1.3897460420926413,0.39166666666666666,0.9756648936170215
15,1.409937195394231,0.3974497126436782,0.9747563769701723,1.3518742521603901,0.39739583333333334,0.9767062832446809
16,1.3795244063454113,0.3958333333333333,0.9757769741779881,1.3305953880151113,0.3927083333333333,0.9776149711879434
17,1.3186489110705497,0.41361350574712646,0.9772850743900793,1.3012909213701884,0.4109375,0.9786862810283689
18,1.306640756541285,0.3999640804597701,0.9775489532207943,1.2794090847174326,0.4109375,0.9787131538120568
19,1.2831490440615292,0.4166666666666667,0.9783742560464999,1.2623414397239685,0.4234375,0.9792001883865248
20,1.260524378083218,0.421875,0.9786510315206484,1.2189194530248642,0.42135416666666664,0.9804346742021278
21,1.2350020299012634,0.41846264367816094,0.979818185986794,1.2354676445325217,0.4161458333333333,0.9801135859929078
22,1.221632887234633,0.42636494252873564,0.9800220287187662,1.1857837677001952,0.42604166666666665,0.9815760749113476
23,1.1964552799860637,0.4385775862068966,0.9809840557298386,1.1947286635637284,0.4296875,0.980898714539007
24,1.1841099834305115,0.4401939655172414,0.9815778283936719,1.1714776158332825,0.42864583333333334,0.9819196032801419
25,1.170106601783599,0.4364224137931034,0.9820730726781693,1.1612205068270365,0.44635416666666666,0.9825152371453899
26,1.1387884274296376,0.45492097701149425,0.9831183431578415,1.1336047530174256,0.4484375,0.9834826573581561
27,1.1446493500950692,0.4504310344827586,0.9827807574569282,1.1062537213166554,0.4578125,0.9841140292553192
28,1.1011529009917687,0.4701867816091954,0.9841934916850087,1.0891977866490683,0.44895833333333335,0.9845420545212765
29,1.0841753636968547,0.4640804597701149,0.9845999418382794,1.0540822823842366,0.4739583333333333,0.9861347517730498
30,1.061292259515017,0.4823994252873563,0.9854811795312908,1.0671757290760675,0.4765625,0.9857906693262413
31,1.0508686519902328,0.48150143678160917,0.9857602279770789,1.0503168443838755,0.475,0.9859145057624114
32,1.0390049366430305,0.49407327586206895,0.9860670132651941,1.0308058927456538,0.49114583333333334,0.9866190159574468
33,1.0310872762367642,0.4870689655172414,0.9864351358459618,1.0076416621605555,0.4786458333333333,0.9869963430851063
34,1.008654359428362,0.4983836206896552,0.9868958902564492,1.039877892533938,0.4703125,0.9861555296985817
35,0.9987358032971964,0.4931752873563218,0.987030917948491,1.0447985033194225,0.46979166666666666,0.9863732823581561
36,0.9789058672285628,0.4994612068965517,0.9876190905372699,0.9966420859098435,0.49114583333333334,0.9877623559397164
37,0.9582173687288131,0.5163433908045977,0.9882056489867685,0.9521865278482438,0.4921875,0.988251329787234
38,0.9578159468612452,0.5057471264367817,0.988146485840902,0.960575059056282,0.515625,0.988230828900709
39,0.9369565659555895,0.5159841954022989,0.9885245897319133,0.9716692378123601,0.4942708333333333,0.9879044769503544
40,0.9230667883637308,0.5224497126436781,0.9888205701693358,0.9426645179589589,0.5114583333333333,0.9887494459219859
41,0.9054113862843349,0.539691091954023,0.9893772505713393,0.939467720190684,0.49635416666666665,0.9886136968085106
42,0.9051282001637865,0.5393318965517241,0.9893030495768718,0.9114219129085541,0.5015625,0.9891201241134752
43,0.8896646068013948,0.5472341954022989,0.9897263987801587,0.9330595433712006,0.5135416666666667,0.9887344858156029
44,0.8940724041955225,0.5452586206896551,0.9895612295076781,0.9177584419647853,0.5140625,0.9888633089539007
45,0.8722698479548268,0.5447198275862069,0.9899568583394472,0.8803110520044962,0.5338541666666666,0.989999168882979
46,0.8653497576028452,0.5479525862068966,0.9899942800174566,0.8629224300384521,0.5244791666666667,0.9899903036347518
47,0.8458425974708864,0.5571120689655172,0.9904267046364932,0.9007256259520848,0.5260416666666666,0.9893592087765959
48,0.8590637041234422,0.5533405172413793,0.9901609646043631,0.8741928259531657,0.5302083333333333,0.9898509530141845
49,0.8411635071381756,0.5601652298850575,0.9905598217146929,0.885020566980044,0.5328125,0.9896237810283688
50,0.8451492991940729,0.5619612068965517,0.9905290213018949,0.8867277393738429,0.5265625,0.9897999778368795
51,0.8210157471141596,0.5759698275862069,0.9911146903277086,0.8807331144809722,0.5265625,0.9899027593085106
52,0.8116554138304173,0.5752514367816092,0.9911586673876929,0.8591119627157847,0.5578125,0.9902629100177307
53,0.8000615194611166,0.5856681034482759,0.9913467640262774,0.840944786866506,0.5510416666666667,0.990600620567376
54,0.8124831120173136,0.5770474137931034,0.9911019089799378,0.8443383266528447,0.54375,0.9903845301418439
55,0.7959214435226616,0.5741738505747126,0.9914289533631021,0.85046546459198,0.5447916666666667,0.9904770611702128
56,0.7943173205030376,0.5806393678160919,0.9913551641388586,0.842867961525917,0.5416666666666666,0.9904274711879433
57,0.7822767102170265,0.6016522988505747,0.9918734346143142,0.862668729821841,0.5552083333333333,0.990613087322695
58,0.7760483769849799,0.5987787356321839,0.9918405259379663,0.8435190816720327,0.5552083333333333,0.9906543661347519
59,0.7668418127229844,0.6084770114942529,0.9920838986114977,0.8365119804938634,0.5546875,0.9909505208333333
60,0.7574780175740692,0.6025502873563219,0.9922938684844115,0.8434619188308716,0.5677083333333334,0.9910355718085105
61,0.754095698910198,0.6120689655172413,0.9923775401940444,0.8131104518969854,0.5703125,0.9915492021276595
62,0.7435359751013504,0.6208692528735632,0.9926419955030739,0.8235548585653305,0.5697916666666667,0.9911563608156028
63,0.731824941333683,0.6298491379310345,0.9928780221957986,0.7909639100233714,0.5984375,0.9920844414893617
64,0.7333211045840691,0.6293103448275862,0.9928774292466751,0.8061401943365732,0.5989583333333334,0.9918727836879433
65,0.7144001122863813,0.6408045977011494,0.9931933723045849,0.8021492004394531,0.5953125,0.9919869237588651
66,0.7240987598210916,0.6390086206896551,0.993097083955271,0.7791942983865738,0.6182291666666667,0.9925279809397163
67,0.7237002484757324,0.639367816091954,0.9930306736534521,0.7950899402300516,0.6020833333333333,0.9917475620567374
68,0.7079885567741833,0.6560704022988506,0.9933933938088733,0.7870960742235183,0.5984375,0.9921293218085107
69,0.6904300113861588,0.6612787356321839,0.9936707951737631,0.756736938158671,0.6255208333333333,0.992740469858156
70,0.695142130057017,0.657507183908046,0.993603330740169,0.7760322650273641,0.6109375,0.9924753435283687
71,0.6754105363426537,0.6720545977011494,0.9939829828872249,0.7511231034994126,0.61875,0.992775930851064
72,0.660942567662261,0.6810344827586207,0.9942269155682613,0.744960555434227,0.6427083333333333,0.9932748781028369
73,0.655868208613889,0.688757183908046,0.9943942589875276,0.7182977870106697,0.6557291666666667,0.9935311391843972
74,0.6455528289079666,0.6866020114942529,0.9945171641641578,0.7274953350424767,0.6494791666666667,0.9934931848404255
75,0.6471690958601305,0.6860632183908046,0.9945389385736334,0.7465136696894964,0.6489583333333333,0.9932768173758867
76,0.6500868555800668,0.6954022988505747,0.9945953016819725,0.6948353836933772,0.68125,0.9941913231382979
77,0.6304877359291603,0.7029454022988506,0.9948843973212403,0.7179599126180013,0.653125,0.9936414007092199
78,0.6224678367718883,0.7142600574712644,0.9950676515419838,0.6901964455842972,0.6828125,0.9942913342198583
79,0.6146249940683102,0.7189295977011494,0.9952046557311037,0.6915419846773148,0.671875,0.9941134751773051
80,0.6056983356160679,0.7216235632183908,0.9953684085140116,0.6887886539101601,0.6765625,0.9942891179078014
81,0.5902680055848484,0.7201867816091954,0.995550707427834,0.6827713121970495,0.6786458333333333,0.9943952238475178
82,0.5931768222101803,0.727191091954023,0.995556636919068,0.6636392166217168,0.6932291666666667,0.9947290558510637
83,0.5868168596563668,0.7345545977011494,0.9956120447204865,0.6780897701780001,0.7005208333333334,0.9945041001773051
84,0.5725464404656969,0.7379669540229885,0.9959005144690128,0.6620643665393193,0.6916666666666667,0.9947642398049646
85,0.5710095787185362,0.7424568965517241,0.9958668810770697,0.6515640199184418,0.6932291666666667,0.9951310394503546
86,0.5564221881929485,0.7410201149425287,0.9960093206331538,0.6319247186183929,0.715625,0.9953338320035461
87,0.5385150419569563,0.7544899425287356,0.9963178188854033,0.65109723508358,0.7083333333333334,0.9950817265070923
88,0.5424003976172415,0.7534123563218391,0.9962618510764794,0.6333178505301476,0.7114583333333333,0.9953443594858156
89,0.5348974325876127,0.7582614942528736,0.9963642006834992,0.6448619484901428,0.7098958333333333,0.995033521719858
90,0.5196349920555093,0.7744252873563219,0.9965445560418615,0.6284722536802292,0.7161458333333334,0.9952604166666666
91,0.5118642992329323,0.7690373563218391,0.9966841955604185,0.6530200262864431,0.7145833333333333,0.9950642730496453
92,0.5102581246488396,0.7755028735632183,0.9967189489673726,0.6058150177200635,0.7333333333333333,0.9957391400709219
93,0.518549811566013,0.7699353448275862,0.9966418985229505,0.6186515420675278,0.71875,0.9954274711879432
94,0.49639465771187313,0.7819683908045977,0.9969099115267201,0.6279407372077306,0.7296875,0.995390070921986
95,0.49308868934368266,0.7744252873563219,0.9968722263157672,0.629241040100654,0.7208333333333333,0.9954878656914895
96,0.4906081648051054,0.7780172413793104,0.9969517473815368,0.6154385854800543,0.7166666666666667,0.9956269392730497
97,0.47891464127206257,0.7864583333333334,0.9971224508458355,0.6068030625581742,0.7322916666666667,0.9959106272163123
98,0.4808779697993706,0.788433908045977,0.9970703042645954,0.6250842556357383,0.725,0.9954443705673758
99,0.4663288726888854,0.7932830459770115,0.9972685139798957,0.5949066216746967,0.7421875,0.9959092420212765
100,0.4596304425905491,0.7986709770114943,0.9973212535102587,0.5894061168034871,0.7385416666666667,0.9959302969858156
101,0.4617903396144681,0.7970545977011494,0.997256753822282,0.585174523293972,0.7416666666666667,0.996027537677305
102,0.4586513864582983,0.8004669540229885,0.9973133145803289,0.6041423420111338,0.7390625,0.9958230828900708
103,0.4509508488164551,0.8087284482758621,0.9974333538361965,0.6278041362762451,0.7348958333333333,0.9955923093971631
104,0.44707268699147235,0.8017241379310345,0.9974513729012237,0.594905594487985,0.7479166666666667,0.9959832114361701
105,0.4258590690020857,0.813757183908046,0.9977233718407671,0.5987137839198112,0.7572916666666667,0.9960979055851065
106,0.4266064542977289,0.8117816091954023,0.9976813712778607,0.5841940308610598,0.7442708333333333,0.9961325354609929
107,0.4262451804403601,0.8144755747126436,0.9976805147957936,0.5814161762595177,0.7604166666666666,0.9960300310283687
108,0.4248393215667242,0.8159123563218391,0.9977322001943818,0.605074409643809,0.7515625,0.9959211546985817
109,0.4145540465739952,0.8168103448275862,0.9978063188348049,0.5859254255890847,0.7427083333333333,0.9961339206560282
110,0.4177720183613657,0.8207614942528736,0.9978326721291776,0.5750013326605161,0.7614583333333333,0.9962353169326241
111,0.41045102262976524,0.8250718390804598,0.9978678537771649,0.6164436886707941,0.7416666666666667,0.9956568594858155
112,0.38176949210893146,0.8408764367816092,0.9981636365648796,0.6093140870332718,0.7473958333333334,0.9960447140957446
113,0.38135252499032296,0.837823275862069,0.9981803709068063,0.5831128974755605,0.75625,0.9961275487588653
114,0.3840476834568484,0.8383620689655172,0.9981310573047116,0.5789762852092584,0.7619791666666667,0.9960441600177307
115,0.39538702608525067,0.8324353448275862,0.9980284441647481,0.5851304640372594,0.7567708333333333,0.9961583000886526
116,0.38765223401373833,0.8363864942528736,0.9981135653055716,0.5665439809362094,0.7692708333333333,0.9961472185283688
117,0.37760380312971686,0.8371048850574713,0.9982244467916446,0.5689915160338084,0.7703125,0.9960541334219858
118,0.387038827456277,0.8367456896551724,0.9981318808451607,0.5904296110073726,0.7651041666666667,0.9961749224290782
119,0.3600350097678174,0.8484195402298851,0.9983281799466187,0.554071536163489,0.7786458333333334,0.9963297872340426
120,0.36463121958505146,0.8473419540229885,0.9983064714203793,0.6030431295434634,0.7489583333333333,0.9961308732269503
121,0.36113917981756144,0.8484195402298851,0.9983242269524629,0.6201976021130879,0.7473958333333334,0.995887078900709
122,0.3501126403524273,0.8541666666666666,0.9984536875110686,0.6071779539187749,0.7520833333333333,0.9958466312056738
123,0.3544549610594223,0.8518318965517241,0.9984080963118038,0.5666628072659174,0.7666666666666667,0.996364140070922
124,0.3521311802083048,0.8566810344827587,0.9984381720090065,0.5833925714095434,0.7677083333333333,0.996028091755319
125,0.34194929478154784,0.8559626436781609,0.9985185824984608,0.5480339015523593,0.7729166666666667,0.9965431072695036
126,0.3206400766797449,0.8676364942528736,0.998672683387305,0.5622167435785135,0.7744791666666667,0.9962857380319149
127,0.3434054308581626,0.8559626436781609,0.9985056035009825,0.5551554809014002,0.7796875,0.9965796764184397
